{
    "config": {
        "tplPath": "tpl",
        "clientId": "7aaa1623a6f442f589e838b2b893a9ea",
        "retPath": "http://instaflat-dev.parseapp.com/",
        "parseClientId": "29KKzTqvdkPyeFJw1v0ftDTHj54TKIISD238C15I",
        "parseJsKey": "10FMhSAX3d70HMl8EhIbQy5JxLBtjjqOK99y2y48",
        "vk": "dev",
        "vkId": "3275141"
    }
}
